{
  "success": true,
  "data": [
    {
      "id": "6a5fa6dfd334337a039ce457",
      "mpName": "Smt. S. Phangnon Konyak (2022-28)",
      "house": "Rajya Sabha",
      "state": "Nagaland",
      "constituency": "Sitting Rajya Sabha",
      "allocatedAmount": 206563957.11,
      "totalExpenditure": 180719000,
      "utilizationPercentage": 87.48815743482442,
      "completedWorksCount": 57,
      "recommendedWorksCount": 17,
      "completionRate": 77.02702702702703,
      "pendingWorks": -40,
      "unspentAmount": 25844957.110000014,
      "completedWorksValue": 144763000,
      "totalCompletedAmount": 144763000,
      "inProgressPayments": 35956000,
      "paymentGapPercentage": 19.89608176229395
    },
    {
      "id": "6a5fa6dcd334337a039ce10c",
      "mpName": "Shri Arun Kumar Sagar ",
      "house": "Lok Sabha",
      "state": "Uttar Pradesh",
      "constituency": "SHAHJAHANPUR",
      "allocatedAmount": 147000000,
      "totalExpenditure": 128343000,
      "utilizationPercentage": 87.30816326530612,
      "completedWorksCount": 4,
      "recommendedWorksCount": 3,
      "completionRate": 57.14285714285714,
      "pendingWorks": -1,
      "unspentAmount": 18657000,
      "completedWorksValue": 97143000,
      "totalCompletedAmount": 97143000,
      "inProgressPayments": 31200000,
      "paymentGapPercentage": 24.30985717958907
    },
    {
      "id": "6a5fa6dfd334337a039ce3fe",
      "mpName": "Shri Mithlesh Kumar (2022-28)",
      "house": "Rajya Sabha",
      "state": "Uttar Pradesh",
      "constituency": "Sitting Rajya Sabha",
      "allocatedAmount": 196063957.11,
      "totalExpenditure": 170753928,
      "utilizationPercentage": 87.09093222279502,
      "completedWorksCount": 195,
      "recommendedWorksCount": 5,
      "completionRate": 97.5,
      "pendingWorks": -190,
      "unspentAmount": 25310029.110000014,
      "completedWorksValue": 143813928,
      "totalCompletedAmount": 143813928,
      "inProgressPayments": 26940000,
      "paymentGapPercentage": 15.777089473455627
    },
    {
      "id": "6a5fa6dfd334337a039ce448",
      "mpName": "Smt. Geeta alias Chandraprabha (2020-26)",
      "house": "Rajya Sabha",
      "state": "Uttar Pradesh",
      "constituency": "Sitting Rajya Sabha",
      "allocatedAmount": 196063957.11,
      "totalExpenditure": 167618448.35,
      "utilizationPercentage": 85.49171954943208,
      "completedWorksCount": 210,
      "recommendedWorksCount": 9,
      "completionRate": 95.8904109589041,
      "pendingWorks": -201,
      "unspentAmount": 28445508.76000002,
      "completedWorksValue": 161572420,
      "totalCompletedAmount": 161572420,
      "inProgressPayments": 6046028.349999994,
      "paymentGapPercentage": 3.607018445472917
    },
    {
      "id": "6a5fa6dfd334337a039ce447",
      "mpName": "Smt. Darshana Singh (2022-28)",
      "house": "Rajya Sabha",
      "state": "Uttar Pradesh",
      "constituency": "Sitting Rajya Sabha",
      "allocatedAmount": 196994373.87,
      "totalExpenditure": 162715452,
      "utilizationPercentage": 82.59903509091014,
      "completedWorksCount": 29,
      "recommendedWorksCount": 17,
      "completionRate": 63.04347826086957,
      "pendingWorks": -12,
      "unspentAmount": 34278921.870000005,
      "completedWorksValue": 138396378,
      "totalCompletedAmount": 138396378,
      "inProgressPayments": 24319074,
      "paymentGapPercentage": 14.945768026997214
    },
    {
      "id": "6a5fa6dfd334337a039ce3e8",
      "mpName": "Shri Javed Ali Khan (2022-28)",
      "house": "Rajya Sabha",
      "state": "Uttar Pradesh",
      "constituency": "Sitting Rajya Sabha",
      "allocatedAmount": 196063957.11,
      "totalExpenditure": 159413303.28,
      "utilizationPercentage": 81.3067866372617,
      "completedWorksCount": 121,
      "recommendedWorksCount": 67,
      "completionRate": 64.36170212765957,
      "pendingWorks": -54,
      "unspentAmount": 36650653.83000001,
      "completedWorksValue": 98785000,
      "totalCompletedAmount": 98785000,
      "inProgressPayments": 60628303.28,
      "paymentGapPercentage": 38.032147902681615
    },
    {
      "id": "6a5fa6dcd334337a039ce0e1",
      "mpName": "S SUPONGMEREN JAMIR",
      "house": "Lok Sabha",
      "state": "Nagaland",
      "constituency": "NAGALAND",
      "allocatedAmount": 147000000,
      "totalExpenditure": 119300000,
      "utilizationPercentage": 81.15646258503402,
      "completedWorksCount": 37,
      "recommendedWorksCount": 19,
      "completionRate": 66.07142857142857,
      "pendingWorks": -18,
      "unspentAmount": 27700000,
      "completedWorksValue": 88300000,
      "totalCompletedAmount": 88300000,
      "inProgressPayments": 31000000,
      "paymentGapPercentage": 25.984911986588433
    },
    {
      "id": "6a5fa6dfd334337a039ce412",
      "mpName": "Shri R. Dharmar (2022-28)",
      "house": "Rajya Sabha",
      "state": "Tamil Nadu",
      "constituency": "Sitting Rajya Sabha",
      "allocatedAmount": 260455766.02,
      "totalExpenditure": 207877791,
      "utilizationPercentage": 79.81308848583424,
      "completedWorksCount": 158,
      "recommendedWorksCount": 86,
      "completionRate": 64.75409836065575,
      "pendingWorks": -72,
      "unspentAmount": 52577975.02000001,
      "completedWorksValue": 177717482,
      "totalCompletedAmount": 177717482,
      "inProgressPayments": 30160309,
      "paymentGapPercentage": 14.50867303087707
    },
    {
      "id": "6a5fa6dfd334337a039ce3dd",
      "mpName": "Shri Hardeep Singh Puri (2020-26)",
      "house": "Rajya Sabha",
      "state": "Uttar Pradesh",
      "constituency": "Sitting Rajya Sabha",
      "allocatedAmount": 226801049.11,
      "totalExpenditure": 179442915.2,
      "utilizationPercentage": 79.11908516479966,
      "completedWorksCount": 199,
      "recommendedWorksCount": 216,
      "completionRate": 47.95180722891566,
      "pendingWorks": 17,
      "unspentAmount": 47358133.910000026,
      "completedWorksValue": 65446993,
      "totalCompletedAmount": 65446993,
      "inProgressPayments": 113995922.19999999,
      "paymentGapPercentage": 63.527680696083564
    },
    {
      "id": "6a5fa6dfd334337a039ce3c3",
      "mpName": "Shri B.L. Verma (2020-26)",
      "house": "Rajya Sabha",
      "state": "Uttar Pradesh",
      "constituency": "Sitting Rajya Sabha",
      "allocatedAmount": 196063957.11,
      "totalExpenditure": 152958941.09,
      "utilizationPercentage": 78.01481891145535,
      "completedWorksCount": 347,
      "recommendedWorksCount": 60,
      "completionRate": 85.25798525798525,
      "pendingWorks": -287,
      "unspentAmount": 43105016.02000001,
      "completedWorksValue": 113949719,
      "totalCompletedAmount": 113949719,
      "inProgressPayments": 39009222.09,
      "paymentGapPercentage": 25.503067563109788
    },
    {
      "id": "6a5fa6dcd334337a039ce145",
      "mpName": "SUKHDEO BHAGAT",
      "house": "Lok Sabha",
      "state": "Jharkhand",
      "constituency": "LOHARDAGA",
      "allocatedAmount": 171821957.11,
      "totalExpenditure": 133889599,
      "utilizationPercentage": 77.92345125849323,
      "completedWorksCount": 50,
      "recommendedWorksCount": 234,
      "completionRate": 17.6056338028169,
      "pendingWorks": 184,
      "unspentAmount": 37932358.110000014,
      "completedWorksValue": 31199500,
      "totalCompletedAmount": 31199500,
      "inProgressPayments": 102690099,
      "paymentGapPercentage": 76.6975924694494
    },
    {
      "id": "6a5fa6dfd334337a039ce45f",
      "mpName": "Smt. Sumitra Balmik (2022-28)",
      "house": "Rajya Sabha",
      "state": "Madhya Pradesh",
      "constituency": "Sitting Rajya Sabha",
      "allocatedAmount": 196063957.11,
      "totalExpenditure": 152410720,
      "utilizationPercentage": 77.73520551484701,
      "completedWorksCount": 49,
      "recommendedWorksCount": 130,
      "completionRate": 27.37430167597765,
      "pendingWorks": 81,
      "unspentAmount": 43653237.110000014,
      "completedWorksValue": 55210491,
      "totalCompletedAmount": 55210491,
      "inProgressPayments": 97200229,
      "paymentGapPercentage": 63.77519179753235
    },
    {
      "id": "6a5fa6dfd334337a039ce3f3",
      "mpName": "Shri Khiru Mahto (2022-28)",
      "house": "Rajya Sabha",
      "state": "Bihar",
      "constituency": "Sitting Rajya Sabha",
      "allocatedAmount": 235770091.81,
      "totalExpenditure": 182470779,
      "utilizationPercentage": 77.39352247741739,
      "completedWorksCount": 164,
      "recommendedWorksCount": 13,
      "completionRate": 92.65536723163842,
      "pendingWorks": -151,
      "unspentAmount": 53299312.81,
      "completedWorksValue": 169971989,
      "totalCompletedAmount": 169971989,
      "inProgressPayments": 12498790,
      "paymentGapPercentage": 6.84974880279324
    },
    {
      "id": "6a5fa6dfd334337a039ce41b",
      "mpName": "Shri Ramji (2020-26)",
      "house": "Rajya Sabha",
      "state": "Uttar Pradesh",
      "constituency": "Sitting Rajya Sabha",
      "allocatedAmount": 174518577.11,
      "totalExpenditure": 133996851,
      "utilizationPercentage": 76.78085234189199,
      "completedWorksCount": 154,
      "recommendedWorksCount": 91,
      "completionRate": 62.857142857142854,
      "pendingWorks": -63,
      "unspentAmount": 40521726.110000014,
      "completedWorksValue": 133996851,
      "totalCompletedAmount": 133996851,
      "inProgressPayments": 0,
      "paymentGapPercentage": 0
    },
    {
      "id": "6a5fa6dfd334337a039ce45b",
      "mpName": "Smt. Seema Dwivedi (2020-26)",
      "house": "Rajya Sabha",
      "state": "Uttar Pradesh",
      "constituency": "Sitting Rajya Sabha",
      "allocatedAmount": 173830159.11,
      "totalExpenditure": 132094519.4,
      "utilizationPercentage": 75.99056462717174,
      "completedWorksCount": 189,
      "recommendedWorksCount": 141,
      "completionRate": 57.27272727272727,
      "pendingWorks": -48,
      "unspentAmount": 41735639.71000001,
      "completedWorksValue": 94406053,
      "totalCompletedAmount": 94406053,
      "inProgressPayments": 37688466.400000006,
      "paymentGapPercentage": 28.531438375481915
    },
    {
      "id": "6a5fa6dfd334337a039ce3b5",
      "mpName": "Prof. Ram Gopal Yadav (2020-26)",
      "house": "Rajya Sabha",
      "state": "Uttar Pradesh",
      "constituency": "Sitting Rajya Sabha",
      "allocatedAmount": 221271395.11,
      "totalExpenditure": 164404082,
      "utilizationPercentage": 74.29974485326957,
      "completedWorksCount": 22,
      "recommendedWorksCount": 57,
      "completionRate": 27.848101265822784,
      "pendingWorks": 35,
      "unspentAmount": 56867313.110000014,
      "completedWorksValue": 62640169,
      "totalCompletedAmount": 62640169,
      "inProgressPayments": 101763913,
      "paymentGapPercentage": 61.898653465307504
    },
    {
      "id": "6a5fa6dfd334337a039ce397",
      "mpName": "Dr. Bhim Singh (2024-30)",
      "house": "Rajya Sabha",
      "state": "Bihar",
      "constituency": "Sitting Rajya Sabha",
      "allocatedAmount": 186200000,
      "totalExpenditure": 137983087,
      "utilizationPercentage": 74.10477282491944,
      "completedWorksCount": 231,
      "recommendedWorksCount": 83,
      "completionRate": 73.56687898089172,
      "pendingWorks": -148,
      "unspentAmount": 48216913,
      "completedWorksValue": 93169910,
      "totalCompletedAmount": 93169910,
      "inProgressPayments": 44813177,
      "paymentGapPercentage": 32.477297018293264
    },
    {
      "id": "6a5fa6dfd334337a039ce454",
      "mpName": "Smt. Ranjeet Ranjan (2022-28)",
      "house": "Rajya Sabha",
      "state": "Chhattisgarh",
      "constituency": "Sitting Rajya Sabha",
      "allocatedAmount": 246780257.87,
      "totalExpenditure": 181353783,
      "utilizationPercentage": 73.48796235375292,
      "completedWorksCount": 147,
      "recommendedWorksCount": 110,
      "completionRate": 57.19844357976653,
      "pendingWorks": -37,
      "unspentAmount": 65426474.870000005,
      "completedWorksValue": 117621814,
      "totalCompletedAmount": 117621814,
      "inProgressPayments": 63731969,
      "paymentGapPercentage": 35.142343294818396
    },
    {
      "id": "6a5fa6dcd334337a039ce166",
      "mpName": "VIJAYLAKSHMI DEVI",
      "house": "Lok Sabha",
      "state": "Bihar",
      "constituency": "SIWAN",
      "allocatedAmount": 147000000,
      "totalExpenditure": 107798616,
      "utilizationPercentage": 73.33239183673469,
      "completedWorksCount": 95,
      "recommendedWorksCount": 82,
      "completionRate": 53.672316384180796,
      "pendingWorks": -13,
      "unspentAmount": 39201384,
      "completedWorksValue": 90543755,
      "totalCompletedAmount": 90543755,
      "inProgressPayments": 17254861,
      "paymentGapPercentage": 16.006570065797504
    },
    {
      "id": "6a5fa6dcd334337a039ce0d2",
      "mpName": "Ramprit Mandal",
      "house": "Lok Sabha",
      "state": "Bihar",
      "constituency": "JHANJHARPUR",
      "allocatedAmount": 147000000,
      "totalExpenditure": 107510581,
      "utilizationPercentage": 73.13644965986394,
      "completedWorksCount": 87,
      "recommendedWorksCount": 92,
      "completionRate": 48.60335195530726,
      "pendingWorks": 5,
      "unspentAmount": 39489419,
      "completedWorksValue": 91202438,
      "totalCompletedAmount": 91202438,
      "inProgressPayments": 16308143,
      "paymentGapPercentage": 15.16887254101994
    }
  ],
  "pagination": {
    "currentPage": 1,
    "totalPages": 38,
    "totalCount": 748,
    "limit": 20
  }
}